[
{
  "pk": 5, 
  "model": "contacts.contact", 
  "fields": {
    "phone": "04 77 90 86 83", 
    "first_name": "Pauline", 
    "last_name": "Cabaret", 
    "object_id": 1, 
    "content_type": [
      "protected_areas", 
      "administrateurrnr"
    ]
  }
},
{
  "pk": 6, 
  "model": "contacts.contact", 
  "fields": {
    "phone": "04 72 31 84 50", 
    "first_name": "S\u00e9bastien", 
    "last_name": "Barthel", 
    "object_id": 2, 
    "content_type": [
      "protected_areas", 
      "administrateurrnr"
    ]
  }
},
{
  "pk": 1, 
  "model": "contacts.typeofcontact", 
  "fields": {
    "activite": "d"
  }
}
]
